<svg xmlns="http://www.w3.org/2000/svg" xmlns:xlink="http://www.w3.org/1999/xlink" width="14" height="14" viewBox="0 0 14 14">
  <defs>
    <clipPath id="clip-path">
      <rect id="Rectangle_431" data-name="Rectangle 431" width="14" height="14" transform="translate(183 505)" fill="#fff" stroke="#707070" stroke-width="1"/>
    </clipPath>
  </defs>
  <g id="add-icon" transform="translate(-183 -505)" clip-path="url(#clip-path)">
    <path id="plus" d="M13.045,5.727H8.273V.955A.955.955,0,0,0,7.318,0H6.682a.955.955,0,0,0-.955.955V5.727H.955A.955.955,0,0,0,0,6.682v.636a.955.955,0,0,0,.955.955H5.727v4.773A.955.955,0,0,0,6.682,14h.636a.955.955,0,0,0,.955-.955V8.273h4.773A.955.955,0,0,0,14,7.318V6.682A.955.955,0,0,0,13.045,5.727Zm0,0" transform="translate(183 505)" fill="#fff"/>
  </g>
</svg>
