<svg xmlns="http://www.w3.org/2000/svg" xmlns:xlink="http://www.w3.org/1999/xlink" width="16" height="16" viewBox="0 0 16 16">
  <defs>
    <clipPath id="clip-path">
      <rect id="Rectangle_310" data-name="Rectangle 310" width="16" height="16" transform="translate(135 145)" fill="#112b3d" stroke="#707070" stroke-width="1"/>
    </clipPath>
  </defs>
  <g id="back-icon" transform="translate(151 161) rotate(-180)" clip-path="url(#clip-path)">
    <g id="angle-double-right" transform="translate(139.586 145)">
      <path id="Path_897" data-name="Path 897" d="M12.166,7.2l-6.6-7a.621.621,0,0,0-.925,0,.641.641,0,0,0,0,.925L11.116,8,4.644,14.871a.621.621,0,0,0,0,.925.64.64,0,0,0,.475.2.683.683,0,0,0,.475-.2l6.6-7.072A1.011,1.011,0,0,0,12.166,7.2Z" transform="translate(-4.437 0.005)" fill="#112b3d"/>
    </g>
  </g>
</svg>
