<svg xmlns="http://www.w3.org/2000/svg" xmlns:xlink="http://www.w3.org/1999/xlink" width="16" height="16" viewBox="0 0 16 16">
  <defs>
    <clipPath id="clip-path">
      <rect id="Rectangle_284" data-name="Rectangle 284" width="16" height="16" transform="translate(1170 15)" fill="gray" stroke="#707070" stroke-width="1"/>
    </clipPath>
  </defs>
  <g id="plus-icon" transform="translate(-1170 -15)" clip-path="url(#clip-path)">
    <g id="circle-plus" transform="translate(1170 15)">
      <path id="Path_851" data-name="Path 851" d="M10.675,7.325h-2v-2A.643.643,0,0,0,8,4.65H8a.643.643,0,0,0-.675.675v2h-2a.675.675,0,0,0,0,1.35h2v2A.643.643,0,0,0,8,11.35H8a.672.672,0,0,0,.675-.675v-2h2A.643.643,0,0,0,11.35,8,.657.657,0,0,0,10.675,7.325Z" fill="gray"/>
      <path id="Path_852" data-name="Path 852" d="M8,0a8,8,0,1,0,8,8A8.024,8.024,0,0,0,8,0ZM8,14.675A6.675,6.675,0,1,1,14.675,8,6.69,6.69,0,0,1,8,14.675Z" fill="gray"/>
    </g>
  </g>
</svg>
